{
	"name": "X3Wiki",
	"author": [
		"Sarah Crowle"
	],
	"url": "https://google.ca",
	"descriptionmsg": "x3wiki-desc",
	"license-name": "MIT",
	"type": "other",
	"requires": {
		"MediaWiki": ">= 1.35.0"
	},
	"AutoloadNamespaces": {
		"MediaWiki\\Extension\\X3Wiki\\": "src/"
	},
	"HookHandlers": {
	    "X3WikiHooks": {
	      "class": "MediaWiki\\Extension\\X3Wiki\\Hooks"
	    }
	},
	"config": {
	},
	"Hooks": {
		"TitleIsAlwaysKnown": "X3WikiHooks",
		"ParserAfterTidy": "X3WikiHooks"
	},
	"MessagesDirs": {
		"X3Wiki": [
			"i18n"
		]
	},
	"ResourceModules": {
		"ext.x3wiki": {
			"localBasePath": "resources/ext.x3wiki",
			"remoteExtPath": "X3Wiki/resources/ext.x3wiki",
			"dependencies": [],
			"styles": [],
			"packageFiles": [
				"init.js"
			],
			"messages": []
		}
	},
	"manifest_version": 2
}
